^C:\USERS\BOT\DESKTOP\АЛГОРИТМЫ\LAB_1\LAB_1\DEBUG\LAB_1.OBJ
C:\USERS\BOT\DESKTOP\Алгоритмы\LAB_1\DEBUG\TASK_1.ILK
C:\USERS\BOT\DESKTOP\Алгоритмы\LAB_1\DEBUG\TASK_1.EXE
C:\USERS\BOT\DESKTOP\АЛГОРИТМЫ\LAB_1\DEBUG\TASK_1.PDB
