^C:\USERS\BOT\DESKTOP\АЛГОРИТМЫ\LAB_1\TASK_3\DEBUG\TASK_3.OBJ
C:\USERS\BOT\DESKTOP\Алгоритмы\LAB_1\DEBUG\TASK_3.ILK
C:\USERS\BOT\DESKTOP\Алгоритмы\LAB_1\DEBUG\TASK_3.EXE
C:\USERS\BOT\DESKTOP\АЛГОРИТМЫ\LAB_1\DEBUG\TASK_3.PDB
